{
    "photos": {
        "page": 1,
        "pages": 3,
        "perpage": 5,
        "total": "13",
        "photo": [
            {
                "id": "48142600047",
                "owner": "182046726@N05",
                "secret": "051d37a460",
                "server": "65535",
                "farm": 66,
                "title": "best simple love spell caster",
                "ispublic": 1,
                "isfriend": 0,
                "isfamily": 0
            },
            {
                "id": "48142493426",
                "owner": "181947371@N07",
                "secret": "dc47f850fb",
                "server": "65535",
                "farm": 66,
                "title": "Vintage USA Retro Independence Day Patriotic 4th of July shirt",
                "ispublic": 1,
                "isfriend": 0,
                "isfamily": 0
            },
            {
                "id": "48142576562",
                "owner": "181947371@N07",
                "secret": "582aa88eb2",
                "server": "65535",
                "farm": 66,
                "title": "Vintage Patriotic Wolf American Flag 4th Of July shirt",
                "ispublic": 1,
                "isfriend": 0,
                "isfamily": 0
            },
            {
                "id": "48142554217",
                "owner": "67851050@N06",
                "secret": "ee59f115f2",
                "server": "65535",
                "farm": 66,
                "title": "Cross of Saint Peter",
                "ispublic": 1,
                "isfriend": 0,
                "isfamily": 0
            },
            {
                "id": "48142448356",
                "owner": "182046726@N05",
                "secret": "8b4858664f",
                "server": "65535",
                "farm": 66,
                "title": "love spell caster in usa",
                "ispublic": 1,
                "isfriend": 0,
                "isfamily": 0
            }
        ]
    },
    "stat": "ok"
}
