{
    "photos": {
        "page": 3,
        "pages": 3,
        "perpage": 5,
        "total": "13",
        "photo": [
            {
                "id": "48141672256",
                "owner": "182334594@N08",
                "secret": "598e2b3ff2",
                "server": "0",
                "farm": 0,
                "title": "Rose's Doors in Smyrna-(615) 212-8854",
                "ispublic": 1,
                "isfriend": 0,
                "isfamily": 0
            },
            {
                "id": "48141663226",
                "owner": "71393709@N06",
                "secret": "b00afe5ffa",
                "server": "65535",
                "farm": 66,
                "title": "Interaction",
                "ispublic": 1,
                "isfriend": 0,
                "isfamily": 0
            },
            {
                "id": "48141751182",
                "owner": "138689155@N07",
                "secret": "9b1af34dde",
                "server": "65535",
                "farm": 66,
                "title": "Mary Ann Rose",
                "ispublic": 1,
                "isfriend": 0,
                "isfamily": 0
            }
        ]
    },
    "stat": "ok"
}
